-------------------------------------------------------------------------------
Test set: az.ibar.taskify.service.Impl.RegistrationServiceImplTest
-------------------------------------------------------------------------------
Tests run: 1, Failures: 0, Errors: 0, Skipped: 0, Time elapsed: 0.01 s - in az.ibar.taskify.service.Impl.RegistrationServiceImplTest
